		{
			"_id":"897654321va",
			"userId":"987654321ab",
			"courseId":"345678abv",
			"username":"dalisaycardo",
			"courseName":"CSS",
			"isPaid": true,
			"dateEnrolled": "2023-02-14T20:00:00.00Z"

		}